{
  "text_-54cb6016": "Customer Information",
  "text_3ff5b7c": "Email",
  "text_-35b49c7e": "Shipping Address",
  "text_12d3df93": "Shipping Method",
  "text_-175ec138": "Payment Info",
  "text_7df1": " / ",
  "text_789bff0f": "Billing Address",
  "text_-3eedfb0d": "Items in Order",
  "text_-77079b6c": "Order Summary",
  "text_-76f396dc": "Subtotal",
  "text_4d3eb24": "Total"
}