{
  "text_-6ce4e26b": "Melbourne",
  "text_-32087c29": "Hi everyone!",
  "text_-2fb1bf05": "Today, I'm bringing delicious cocktail empanadas ready to fry. They're delicious with authentic Colombian flavour.",
  "text_-293b7bc9": "Filling & Sizes",
  "text_-33544976": "Choose your favourite filling: ",
  "text_40e806ef": "Beef, Chicken or Cheese ",
  "text_-5cf92156": "and preferred empanada size:",
  "text_200d": "‍",
  "text_54b14508": "Small Empanadas Pack",
  "text_69241343": "Pack X 12  $10 AUD",
  "text_-17af7f1f": "Pack X 24  $20 AUD",
  "text_9307c9a": "Medium Empanadas Pack",
  "text_-54b668c3": "Pack X 6  $15 AUD.",
  "text_-2893a4b3": "You can customise your pack using any combination of fillings per pack.",
  "text_-2a48f137": "Orders & Delivery",
  "text_-477a5625": "All my products are Made to Order Only! You can ",
  "text_-60ce40b3": "order everyday ",
  "text_2d18b524": "from 7 a.m. a 5 p.m. ",
  "text_34ef8014": "Delivery",
  "text_302fd6c9": " on Thursdays, Fridays and Saturdays after 4 p.m. in the CBD.",
  "text_40c39afa": "Pick Up",
  "text_1559da71": " also available, contact me first to arrange details.",
  "text_-5fa13623": "Order Now!",
  "text_5456d081": "Sandra Barbosa",
  "text_3f1ae3e3": "HI - I’m Colombian Name & I like food. I'm working to bring you a bit of taste from our country. Today, we're offering a full range of bakery products, recipe fully inspired on our more traditional bakers from Bogotá / Colombia.",
  "text_42cccd7d": "Have something to share? Contact Me.",
  "text_645efc51": "About Us",
  "text_553e063d": "We are a group of people telling who is behind these great ideas. In this directory, we are sharing a glimpse of the journey of these amazing dreams and their entrepreneurs.",
  "text_-2aa852a5": "SOme useful links",
  "text_c4f6bc3": "@ourtales.shop",
  "text_-7740163c": "Entrepreneur check in",
  "text_44494aa": "Click below If you're interested in being part of our tales community. ",
  "text_7b25f8c9": "Copyright © 2020 Our Tales.",
  "link_29d0cb47": "index",
  "link_23": "#",
  "image_4eed19bd": "{\"src\":\"images/ourtales-header.png\",\"srcset\":[],\"alt\":\"\"}",
  "image_-113b831": "{\"src\":\"images/empanadas-02.jpg\",\"srcset\":[],\"alt\":\"\"}",
  "image_-121cfb2": "{\"src\":\"images/empanadas-01.jpg\",\"srcset\":[],\"alt\":\"\"}",
  "image_-26767a3d": "{\"src\":\"images/avatar.jpg\",\"srcset\":[\"images/avatar-p-500.jpeg 500w\",\"images/avatar-p-800.jpeg 800w\",\"images/avatar-p-1080.jpeg 1080w\",\"images/avatar-p-1600.jpeg 1600w\"],\"alt\":\"\"}"
}