{
  "text_-6ce4e26b": "Melbourne",
  "text_-9b2421f": "Cakes & Desserts Genovesa Specialist",
  "text_-4ecb684a": "Cakes and Desserts / Genovesa (3 milks cake) / Nude Cakes / Chocolate Cakes / Cupcakes",
  "text_-320279d4": "Our flagship cake is the “Genovesa”, which comes in many different forms and amazing flavours. Also known in some places as 3 milks cake, it is a moist cake rich in flavour and sweetness that will make you enjoy a piece of Latin America in each bite. We take special care in our decoration to make sure the cake fits high standards in presentation to make it a perfect complement to your special occasions or just as a dessert.",
  "text_7a0571c7": "My Cakes",
  "text_-b8dba29": "Genovesa or 3 Milks Cake (Tres Leches)",
  "text_5f627d01": "Enjoy the popular Genovesa or 3 Milks cake in your favourite flavour:",
  "text_200d": "‍",
  "text_-1c012a79": "Traditional",
  "text_-71c637e3": "Milo Infused",
  "text_-1cb7a735": "Passion Fruit",
  "text_-64ad596b": "Coconut",
  "text_-5d8c91e9": "Chocolate Cakes",
  "text_-4c297228": "Birthday Cakes",
  "text_-2114f45d": "Nude Cakes",
  "text_21e765dd": "Cupcakes",
  "text_55f9310d": "Check my Instagram and",
  "text_-b88679e": "order your favourite ones!",
  "text_-5fbb8620": "Contact me to arrange details of delivery.",
  "text_-5fa13623": "Order Now!",
  "text_-67cf3e6f": "Marcela Restrepo",
  "text_6bd07fd4": "Marce Restrepo, accountant by trade that decided to follow her entrepreneur soul in Australia. Mother of two beautiful girls that add magical colours to her life and are her daily motivation. Passionate for great cuisine, bakery and decoration she dived into creating Marce Cakes. Marce Cakes is an Australian established business currently based from Melbourne. It started more than 4 years ago in Sydney from the need to fulfil Marce’s passion and creativity and at the same time provide the flexibility required to raise her family.",
  "text_798d2a19": "Contact and Folllow Me :)",
  "text_645efc51": "About Us",
  "text_553e063d": "We are a group of people telling who is behind these great ideas. In this directory, we are sharing a glimpse of the journey of these amazing dreams and their entrepreneurs.",
  "text_-2aa852a5": "SOme useful links",
  "text_c4f6bc3": "@ourtales.shop",
  "text_-7740163c": "Entrepreneur check in",
  "text_44494aa": "Click below If you're interested in being part of our tales community. ",
  "text_7b25f8c9": "Copyright © 2020 Our Tales.",
  "text_-7b99e2af": "\n@import url('https://fonts.googleapis.com/css2?family=Rancho&display=swap');\n.hero-social.linkedin {\n\tdisplay: none;\n}\n",
  "link_29d0cb47": "index",
  "link_-7d51f46e": "https://www.instagram.com/marce.cakes/",
  "link_-3d22a6ee": "https://www.facebook.com/pg/marcecakesaustralia/",
  "link_-5f98d0ec": "https://wa.me/61415524462",
  "link_23": "#",
  "image_4eed19bd": "{\"src\":\"images/ourtales-header.png\",\"srcset\":[],\"alt\":\"\"}",
  "image_52075ab2": "{\"src\":\"images/marce-cakes-09.jpg\",\"srcset\":[\"images/marce-cakes-09-p-500.jpeg 500w\",\"images/marce-cakes-09-p-800.jpeg 800w\",\"images/marce-cakes-09.jpg 900w\"],\"alt\":\"\"}",
  "image_51969eaa": "{\"src\":\"images/marce-cakes-01.jpg\",\"srcset\":[\"images/marce-cakes-01-p-500.jpeg 500w\",\"images/marce-cakes-01-p-800.jpeg 800w\",\"images/marce-cakes-01.jpg 900w\"],\"alt\":\"\"}",
  "image_51a4b62b": "{\"src\":\"images/marce-cakes-02.jpg\",\"srcset\":[\"images/marce-cakes-02-p-500.jpeg 500w\",\"images/marce-cakes-02.jpg 700w\"],\"alt\":\"\"}",
  "image_-2fa0bc2c": "{\"src\":\"images/marce-cakes-logo.jpg\",\"srcset\":[\"images/marce-cakes-logo-p-500.jpeg 500w\",\"images/marce-cakes-logo-p-800.jpeg 800w\",\"images/marce-cakes-logo.jpg 1000w\"],\"alt\":\"\"}",
  "image_-4d0d33b3": "{\"src\":\"images/marce-cakes-check.png\",\"srcset\":[],\"alt\":\"\"}",
  "image_53598eca": "{\"src\":\"images/marce-cakes-12.jpg\",\"srcset\":[\"images/marce-cakes-12-p-500.jpeg 500w\",\"images/marce-cakes-12.jpg 700w\"],\"alt\":\"\"}",
  "image_533d5fc8": "{\"src\":\"images/marce-cakes-10.jpg\",\"srcset\":[\"images/marce-cakes-10-p-500.jpeg 500w\",\"images/marce-cakes-10.jpg 700w\"],\"alt\":\"\"}",
  "image_5375bdcc": "{\"src\":\"images/marce-cakes-14.jpg\",\"srcset\":[],\"alt\":\"\"}",
  "image_-7b64319e": "{\"src\":\"images/marce-cakes-wa-02.jpg\",\"srcset\":[\"images/marce-cakes-wa-02-p-500.jpeg 500w\",\"images/marce-cakes-wa-02.jpg 700w\"],\"alt\":\"\"}",
  "image_5383d54d": "{\"src\":\"images/marce-cakes-15.jpg\",\"srcset\":[\"images/marce-cakes-15-p-500.jpeg 500w\",\"images/marce-cakes-15.jpg 700w\"],\"alt\":\"\"}",
  "image_5367a64b": "{\"src\":\"images/marce-cakes-13.jpg\",\"srcset\":[\"images/marce-cakes-13-p-500.jpeg 500w\",\"images/marce-cakes-13.jpg 700w\"],\"alt\":\"\"}",
  "image_51f94331": "{\"src\":\"images/marce-cakes-08.jpg\",\"srcset\":[\"images/marce-cakes-08-p-500.jpeg 500w\",\"images/marce-cakes-08.jpg 700w\"],\"alt\":\"\"}",
  "image_-4b191cfe": "{\"src\":\"images/marce-cakes-avatar.jpg\",\"srcset\":[],\"alt\":\"\"}"
}