{
  "text_-6ce4e26b": "Melbourne",
  "text_-689bd2ae": "Colombian & Latin Goods",
  "text_-6ac1b139": "Papas Rellenas - Stuffed potatoes /  Arepas /  Pan de Bonos / Empanadas / Vegetarian Options",
  "text_-11c644f3": "In our menu you can find: papas rellenas (stuffed potatoes), Arepas, Pan de Bonos, Empanadas and other special dishes made by customers request. Our food have a vegetarian option to allow everyone to calm the cravings!",
  "text_-7a5fd008": "Our Products",
  "text_123a7b42": "Stuffed Potatoes",
  "text_-4701784": "(Papas Rellenas) ",
  "text_63b8c872": "Stuffed potatoes! Let us give you all the latin flavour by eating our products. Get them fresh or frozen and enjoy them at any time! ",
  "text_54671537": "Cheese Arepas",
  "text_-470b5c94": "Have it as a breakfast or snack at any time! Doesn’t matter if you are not Latin we know you will love it!!",
  "text_23cf586f": "Cheese Bread",
  "text_43fd1307": "(Pan de Bono)",
  "text_-412066bb": "Our cheese bread are baked by order so you will always get them fresh! They are cheesy going well with a hot drink.",
  "text_1cdbbea": "Empanadas",
  "text_-319410f0": "Feel the latin flavour of our empanadas and enjoy their crunchy texture! Chicken, Beef and Vegetarian empanadas that will take you to Latin America in every bite!",
  "text_2efa875a": "Order now and get it",
  "text_2f3ee476": "delivered next day!",
  "text_3a99d6c3": "Contact us to arrange details.",
  "text_-5fa13623": "Order Now!",
  "text_-48a69fa4": "Diego Daza",
  "text_-29b98c5": "Hey! I’m Diego, I am a Colombian chef who has lived in Australia for 5 years, I love cooking and my idea is to show a little bit our culture to the world through our food. I have always wanted to show the good things of our culture to the world and as I’m chef I decide to use my skills to make people fall in love with us.",
  "text_5988be8b": "Contact and Follow Us :)",
  "text_645efc51": "About Us",
  "text_553e063d": "We are a group of people telling who is behind these great ideas. In this directory, we are sharing a glimpse of the journey of these amazing dreams and their entrepreneurs.",
  "text_-2aa852a5": "SOme useful links",
  "text_-507c1747": "registration",
  "text_-3ae39ac3": "Click below If you're interested in being part of our community. ",
  "text_7b25f8c9": "Copyright © 2020 Our Tales.",
  "text_20e2f9b2": "\n.hero-social.linkedin {\n\tdisplay: none;\n}\n",
  "link_29d0cb47": "index",
  "link_739335b8": "https://wa.me/61435724316",
  "link_23": "#",
  "link_45e3c6f2": "https://www.instagram.com/latincravingsau/",
  "image_4eed19bd": "{\"src\":\"images/ourtales-header.png\",\"srcset\":[],\"alt\":\"\"}",
  "image_-a6cef90": "{\"src\":\"images/latin-cravings-05.jpg\",\"srcset\":[\"images/latin-cravings-05-p-500.jpeg 500w\",\"images/latin-cravings-05-p-800.jpeg 800w\",\"images/latin-cravings-05.jpg 960w\"],\"alt\":\"\"}",
  "image_-a7b0711": "{\"src\":\"images/latin-cravings-04.jpg\",\"srcset\":[\"images/latin-cravings-04-p-500.jpeg 500w\",\"images/latin-cravings-04-p-800.jpeg 800w\",\"images/latin-cravings-04.jpg 814w\"],\"alt\":\"\"}",
  "image_-aa54d94": "{\"src\":\"images/latin-cravings-01.jpg\",\"srcset\":[\"images/latin-cravings-01-p-500.jpeg 500w\",\"images/latin-cravings-01.jpg 700w\"],\"alt\":\"\"}",
  "image_-6c9290ea": "{\"src\":\"images/latin-cravings-logo.jpg\",\"srcset\":[],\"alt\":\"\"}",
  "image_-779335f": "{\"src\":\"images/latin-cravings-04_1.jpg\",\"srcset\":[\"images/latin-cravings-04_1-p-500.jpeg 500w\",\"images/latin-cravings-04_1.jpg 700w\"],\"alt\":\"\"}",
  "image_-a891e92": "{\"src\":\"images/latin-cravings-03.jpg\",\"srcset\":[\"images/latin-cravings-03-p-500.jpeg 500w\",\"images/latin-cravings-03.jpg 700w\"],\"alt\":\"\"}",
  "image_-a973613": "{\"src\":\"images/latin-cravings-02.jpg\",\"srcset\":[\"images/latin-cravings-02-p-500.jpeg 500w\",\"images/latin-cravings-02.jpg 700w\"],\"alt\":\"\"}",
  "image_-a5ed80f": "{\"src\":\"images/latin-cravings-06.jpg\",\"srcset\":[\"images/latin-cravings-06-p-500.jpeg 500w\",\"images/latin-cravings-06.jpg 700w\"],\"alt\":\"\"}",
  "image_-592817c6": "{\"src\":\"images/ambrosia-bread-coffee-avatar.jpg\",\"srcset\":[],\"alt\":\"\"}"
}