{
  "text_-6ce4e26b": "Melbourne",
  "text_59f74240": "Handcrafted Accessories",
  "text_-550ed9c0": "Bracelets /  Necklaces / Earrings / Anklets",
  "text_-76c75045": "Ocean Soul Bracelets is a page full of love and creativity. we offer hand made bracelets, anklets and necklaces in endless colour combinations each one as unique as the person wearing it.",
  "text_-7a5fd008": "Our Products",
  "text_35d8ba4b": "Bracelets",
  "text_5a6f7d9d": "Necklaces",
  "text_-2c122133": "Earrings",
  "text_30409476": "Anklets",
  "text_-7e5f0cd8": "Free Delivery",
  "text_6b2245b3": "Australia Wide",
  "text_5e3b2808": "Choose your favourite ones",
  "text_-1b412782": "in our Instagram!",
  "text_-5fa13623": "Order Now!",
  "text_160eeaab": "Katherine & Dayanna",
  "text_-306476a0": "Hey! We are Twins working behind this beautiful brand, we are from Colombia, and we love creativity, we are passionate about using our hands to creat new things, Ocean Soul Bracelets is a friendly brand that was named Between the stunning sunsets, cool beach islands and clear sand! we fall in love of the peace that the ocean can give you and of course the inspiration itself of the waves sound and it didn’t take long for Katherine and Dayanna to fall in love of this concept to creat OCEAN SOUL, good vibes is all have here.",
  "text_7a044372": "Contact and Folllow Us ;)",
  "text_645efc51": "About Us",
  "text_553e063d": "We are a group of people telling who is behind these great ideas. In this directory, we are sharing a glimpse of the journey of these amazing dreams and their entrepreneurs.",
  "text_-2aa852a5": "SOme useful links",
  "text_-507c1747": "registration",
  "text_-3ae39ac3": "Click below If you're interested in being part of our community. ",
  "text_7b25f8c9": "Copyright © 2020 Our Tales.",
  "text_20e2f9b2": "\n.hero-social.linkedin {\n\tdisplay: none;\n}\n",
  "link_29d0cb47": "index",
  "link_5865aa05": "https://www.instagram.com/oceansoulbracelets/",
  "link_5bf019e5": "https://www.facebook.com/oceansoulbracelets/",
  "link_63f6c699": "https://wa.me/61451058119",
  "link_23": "#",
  "image_4eed19bd": "{\"src\":\"images/ourtales-header.png\",\"srcset\":[],\"alt\":\"\"}",
  "image_-78235157": "{\"src\":\"images/ocean-soul-bracelets-11.jpg\",\"srcset\":[],\"alt\":\"\"}",
  "image_-783168d8": "{\"src\":\"images/ocean-soul-bracelets-10.jpg\",\"srcset\":[\"images/ocean-soul-bracelets-10-p-500.jpeg 500w\",\"images/ocean-soul-bracelets-10-p-800.jpeg 800w\",\"images/ocean-soul-bracelets-10.jpg 1080w\"],\"alt\":\"\"}",
  "image_-79676dee": "{\"src\":\"images/ocean-soul-bracelets-09.jpg\",\"srcset\":[\"images/ocean-soul-bracelets-09-p-500.jpeg 500w\",\"images/ocean-soul-bracelets-09.jpg 700w\"],\"alt\":\"\"}",
  "image_25802334": "{\"src\":\"images/ocean-soul-bracelets-logo.jpg\",\"srcset\":[\"images/ocean-soul-bracelets-logo-p-500.jpeg 500w\",\"images/ocean-soul-bracelets-logo.jpg 700w\"],\"alt\":\"\"}",
  "image_-79d829f6": "{\"src\":\"images/ocean-soul-bracelets-01.jpg\",\"srcset\":[\"images/ocean-soul-bracelets-01-p-500.jpeg 500w\",\"images/ocean-soul-bracelets-01.jpg 700w\"],\"alt\":\"\"}",
  "image_-79ca1275": "{\"src\":\"images/ocean-soul-bracelets-02.jpg\",\"srcset\":[\"images/ocean-soul-bracelets-02-p-500.jpeg 500w\",\"images/ocean-soul-bracelets-02.jpg 700w\"],\"alt\":\"\"}",
  "image_-799fcbf2": "{\"src\":\"images/ocean-soul-bracelets-05.jpg\",\"srcset\":[\"images/ocean-soul-bracelets-05-p-500.jpeg 500w\",\"images/ocean-soul-bracelets-05.jpg 700w\"],\"alt\":\"\"}",
  "image_-7991b471": "{\"src\":\"images/ocean-soul-bracelets-06.jpg\",\"srcset\":[\"images/ocean-soul-bracelets-06-p-500.jpeg 500w\",\"images/ocean-soul-bracelets-06.jpg 700w\"],\"alt\":\"\"}",
  "image_-79bbfaf4": "{\"src\":\"images/ocean-soul-bracelets-03.jpg\",\"srcset\":[\"images/ocean-soul-bracelets-03-p-500.jpeg 500w\",\"images/ocean-soul-bracelets-03.jpg 700w\"],\"alt\":\"\"}",
  "image_-79ade373": "{\"src\":\"images/ocean-soul-bracelets-04.jpg\",\"srcset\":[\"images/ocean-soul-bracelets-04-p-500.jpeg 500w\",\"images/ocean-soul-bracelets-04.jpg 700w\"],\"alt\":\"\"}",
  "image_-7975856f": "{\"src\":\"images/ocean-soul-bracelets-08.jpg\",\"srcset\":[],\"alt\":\"\"}",
  "image_-79839cf0": "{\"src\":\"images/ocean-soul-bracelets-07.jpg\",\"srcset\":[\"images/ocean-soul-bracelets-07-p-500.jpeg 500w\",\"images/ocean-soul-bracelets-07.jpg 700w\"],\"alt\":\"\"}",
  "image_454d6a62": "{\"src\":\"images/ocean-soul-bracelets-avatar.jpg\",\"srcset\":[\"images/ocean-soul-bracelets-avatar-p-500.jpeg 500w\"],\"alt\":\"\"}"
}