{
  "text_-6ce4e26b": "Melbourne",
  "text_-4514cf30": "Tales of the City",
  "text_-4235dd7b": "Our Tales is a web directory where you can travel through some of the most exciting Melbourne community entrepreneurship.",
  "text_200d": "‍",
  "text_-496bb0d1": "Here you can find a great variety of products and services made with passion and love by your neighbours and friends. ",
  "text_-66b122ac": "Join us in this journey!",
  "text_7628ee00": "Bakery",
  "text_-462632b0": "Sweet Bakery",
  "text_4cdd6f7a": "Ambrosía Bread & Coffee",
  "text_-5b8644e5": "Marce Cakes",
  "text_112d9c44": "Nani's Cupcakes & Cakes",
  "text_-a7b522f": "Angel Sweet",
  "text_765cfc9c": "Beauty",
  "text_38b54dc": "Beauty Lashes",
  "text_-5ba47f21": "Barber Young Lineage",
  "text_79ceadde": "Design",
  "text_7f8e1801": "Custom Mug Style",
  "text_345f400": "Ocean Soul Bracelets",
  "text_-29e83785": "Sweet Purpose Gift Boxes",
  "text_-4b0f148d": "New stories everyday!",
  "text_65e738f4": "Coming Soon...",
  "text_645efc51": "About Us",
  "text_553e063d": "We are a group of people telling who is behind these great ideas. In this directory, we are sharing a glimpse of the journey of these amazing dreams and their entrepreneurs.",
  "text_-2aa852a5": "SOme useful links",
  "text_-507c1747": "registration",
  "text_-3ae39ac3": "Click below If you're interested in being part of our community. ",
  "text_7b25f8c9": "Copyright © 2020 Our Tales.",
  "link_23": "#",
  "link_-7ad3c64": "sweet-bakery",
  "link_5f0b3a23": "ambrosia-bread-coffee",
  "link_-2ac9cdd5": "marce-cakes",
  "link_-7d4407ba": "nanis-cupcakes-cakes",
  "link_-3a3b7ecb": "angel-sweet",
  "link_-722e0161": "beauty-lashes-ka",
  "link_7f2580c3": "young-lineage",
  "link_79b68272": "custom-mug-style",
  "link_6b772119": "ocean-soul-bracelets",
  "link_12288238": "sweet-purpose",
  "image_4eed19bd": "{\"src\":\"images/ourtales-header.png\",\"srcset\":[],\"alt\":\"\"}",
  "image_3685a2c3": "{\"src\":\"images/Sweat-Bakery.jpg\",\"srcset\":[],\"alt\":\"\"}",
  "image_-58d6264e": "{\"src\":\"images/Ambrosia-Bread-Coffee.jpg\",\"srcset\":[\"images/Ambrosia-Bread-Coffee.jpg 500w\",\"images/Ambrosia-Bread-Coffee.jpg 620w\"],\"alt\":\"\"}",
  "image_-4a0fb876": "{\"src\":\"images/Marce-Cakes.jpg\",\"srcset\":[\"images/Marce-Cakes-p-500.jpeg 500w\",\"images/Marce-Cakes.jpg 620w\"],\"alt\":\"\"}",
  "image_c3583bd": "{\"src\":\"images/Nanis-Cupcakes-Cakes.jpg\",\"srcset\":[\"images/Nanis-Cupcakes-Cakes.jpg 500w\",\"images/Nanis-Cupcakes-Cakes.jpg 620w\"],\"alt\":\"\"}",
  "image_-31c910c0": "{\"src\":\"images/Angel-Sweet.jpg\",\"srcset\":[\"images/Angel-Sweet-p-500.jpeg 500w\",\"images/Angel-Sweet.jpg 620w\"],\"alt\":\"\"}",
  "image_53e6eb5e": "{\"src\":\"images/Lashes-Katherine.jpg\",\"srcset\":[],\"alt\":\"\"}",
  "image_-420204e": "{\"src\":\"images/Young-Lineage.jpg\",\"srcset\":[],\"alt\":\"\"}",
  "image_553fb51": "{\"src\":\"images/Custom-Mug-Style.jpg\",\"srcset\":[\"images/Custom-Mug-Style-p-500.jpeg 500w\",\"images/Custom-Mug-Style.jpg 620w\"],\"alt\":\"\"}",
  "image_5005848a": "{\"src\":\"images/Ocean-Soul-Bracelets.jpg\",\"srcset\":[],\"alt\":\"\"}",
  "image_3a6c5b9d": "{\"src\":\"images/Sweet-Purpose.jpg\",\"srcset\":[\"images/Sweet-Purpose-p-500.jpeg 500w\",\"images/Sweet-Purpose.jpg 620w\"],\"alt\":\"\"}",
  "image_-6c9290ea": "{\"src\":\"images/latin-cravings-logo.jpg\",\"srcset\":[],\"alt\":\"\"}",
  "image_3a10c287": "{\"src\":\"images/mico-baked-creations-logo.jpg\",\"srcset\":[],\"alt\":\"\"}",
  "image_33cf3ad1": "{\"src\":\"images/traditional-lasagna-logo.jpg\",\"srcset\":[],\"alt\":\"\"}",
  "image_-3516d3d0": "{\"src\":\"images/fernanda-duran.jpg\",\"srcset\":[],\"alt\":\"\"}"
}